{
  "success": "true",
  "message": "",
  "errorCode": "ER-00",
  "data": {
    "MessageID": 42000047358358,
    "CorrelationID": "",
    "Status": "Queued",
    "NumberOfUnits": 0,
    "Cost": 0,
    "Balance": 0,
    "Recipient": "966562698748",
    "TimeCreated": "2021-04-20 11:17:11.310",
    "CurrencyCode": ""
  }
}