{
  "employmentStatusInfo": [
    {
      "fullName": "محمدtestestsetثي",
      "basicWage": 0,
      "housingAllowance": 0,
      "otherAllowance": 0,
      "employerName": "فرع شركةtestدة",
      "dateOfJoining": "29/12/2008",
      "workingMonths": "33",
      "employmentStatus": "نشيط",
      "salaryStartingDate": "07/12/2010",
      "establishmentActivity": "التtestاصة"
    }
  ]
}